03-assignment_chen
…
##4-Create a graph that shows average levels of monthly income by field of education, gender, and job level (scale of 1-5, highest ranked employees are 5).

I am interested in using facets, or lots of little graphs, which show how the pattern varies across different groups. In this case, our groups will be defined by gender, field of education, and job level.

The following code will create a new dataset, at_income.edgenjob which will show the average monthly income, when grouped by education field, gender, and job level. To do this, I will use the group_by and summarize command, creating a new variable, income_avg, which is equal to the mean monthly income for each group of the three predictor variables. The data is arranged in decreasing values of average monthly income.

at_income.edgenjob<-at%>%
  group_by(EducationField,Gender,JobLevel)%>%
  summarize(income_avg=mean(MonthlyIncome))%>%
  arrange(-income_avg)

at_income.edgenjob

## # A tibble: 58 x 4
## # Groups:   EducationField, Gender [12]
##    EducationField   Gender JobLevel income_avg
##    <chr>            <chr>     <int>      <dbl>
##  1 Technical Degree Female        5     19744 
##  2 Other            Male          5     19443.
##  3 Human Resources  Male          5     19322 
##  4 Medical          Male          5     19251.
##  5 Technical Degree Male          5     19232 
##  6 Life Sciences    Male          5     19232.
##  7 Life Sciences    Female        5     19143 
##  8 Marketing        Female        5     19101.
##  9 Other            Female        5     19094 
## 10 Medical          Female        5     19032.
## #  with 48 more rows
…
