10-assignment-chen
…
2 - Using a random partition, create 100 separate cross validations of your linear model predicting reading scores as a function of at least two covariates. Provide a summary table or graphic of the RMSEs from this cross validation.

The crossv_mc command provides for a generalization of the crossfold command. For this command, we can specify the proportion to be randomly held out in each iteration, via test=p where p is the proportion to be held out. The pd_cv dataset is a dataset of 100x2 datasets, with each row containing a training and testing dataset. The testing dataset is .2 of the sample, but its different each time.

pd_cv<-pd%>%
  crossv_mc(n=100,test=.2)
pd_cv

## # A tibble: 100 x 3
##    train      test       .id  
##    <list>     <list>     <chr>
##  1 <resample> <resample> 001  
##  2 <resample> <resample> 002  
##  3 <resample> <resample> 003  
##  4 <resample> <resample> 004  
##  5 <resample> <resample> 005  
##  6 <resample> <resample> 006  
##  7 <resample> <resample> 007  
##  8 <resample> <resample> 008  
##  9 <resample> <resample> 009  
## 10 <resample> <resample> 010  
## #  with 90 more rows

mod1_rmse_cv<-pd_cv %>% 
  mutate(train = map(train, as_tibble)) %>% ## Convert to tibbles
  mutate(model = map(train, ~ lm(mod1_formula, data = .)))%>%
  mutate(rmse = map2_dbl(model, test, rmse))%>% 
  select(.id, rmse) ## pull just id and rmse 

mod1_rmse_cv

## # A tibble: 100 x 2
##    .id    rmse
##    <chr> <dbl>
##  1 001   0.216
##  2 002   0.213
##  3 003   0.217
##  4 004   0.219
##  5 005   0.208
##  6 006   0.219
##  7 007   0.214
##  8 008   0.219
##  9 009   0.219
## 10 010   0.212
## #  with 90 more rows
…
