12-assignment-chen
…
Now well gather everything, so that we have just two variables: the proportion (as a number) and the variable (as a character). In the following command, -cluster drops the cluster assignment.

sum1<-gather(sum,-cluster,key=variable,value=value)
sum1

## # A tibble: 99 x 3
##    cluster variable   value
##      <int> <chr>      <dbl>
##  1       1 instr       2.36
##  2       2 instr       2.56
##  3       3 instr       2.58
##  4       1 class       7.20
##  5       2 class       7.18
##  6       3 class       7.61
##  7       1 nb.repeat   1.18
##  8       2 nb.repeat   1.23
##  9       3 nb.repeat   1.25
## 10       1 attendance  1.93
## #  with 89 more rows
…
