Avocado Project
…
It is surprising that the regions that are producing the majority of avocadoes in the United States also have the highest average prices. The average price of avocadoes in California is $1.49, which is $0.08 higher than the unconditional mean of average prices, $1.41. The average price of avocadoes in the Southeast region of the US, which includes Florida, is $1.41, equal to the unconditional mean of average prices.

Two Predictors: Summarizing Average Price by Year and U.S. Region

## Summarize average price by year and US Region
avocadoes_yearRegion<-avocado_tidy%>%
  group_by(Year, US_region)%>%
  summarize(avg_yearRegion=mean(Average_Price))%>%ungroup()%>%arrange(US_region)

avocadoes_yearRegion

## # A tibble: 32 x 3
##     Year US_region   avg_yearRegion
##    <dbl> <chr>                <dbl>
##  1  2015 California            1.36
##  2  2016 California            1.46
##  3  2017 California            1.65
##  4  2018 California            1.45
##  5  2015 Great Lakes           1.33
##  6  2016 Great Lakes           1.30
##  7  2017 Great Lakes           1.44
##  8  2018 Great Lakes           1.28
##  9  2015 Mid-South             1.36
## 10  2016 Mid-South             1.32
## #  with 22 more rows
…
## Summarize total volume by year and US Region
avo_Vol_Yr_Region<-avocado_tidy%>%
  group_by(Year, US_region)%>%
  summarize(Vol_Yr_Region=mean(Total_Volume))%>%ungroup()%>%arrange(US_region)

avo_Vol_Yr_Region

## # A tibble: 32 x 3
##     Year US_region   Vol_Yr_Region
##    <dbl> <chr>               <dbl>
##  1  2015 California       1033923.
##  2  2016 California       1121772.
##  3  2017 California       1072423.
##  4  2018 California       1235988.
##  5  2015 Great Lakes       365932.
##  6  2016 Great Lakes       381390.
##  7  2017 Great Lakes       397560.
##  8  2018 Great Lakes       492370.
##  9  2015 Mid-South         267947.
## 10  2016 Mid-South         294030.
## #  with 22 more rows
…
